<?xml version="1.0" encoding="UTF-8" standalone="no"?>
<svg
   xmlns:dc="http://purl.org/dc/elements/1.1/"
   xmlns:cc="http://creativecommons.org/ns#"
   xmlns:rdf="http://www.w3.org/1999/02/22-rdf-syntax-ns#"
   xmlns:svg="http://www.w3.org/2000/svg"
   xmlns="http://www.w3.org/2000/svg"
   xmlns:sodipodi="http://sodipodi.sourceforge.net/DTD/sodipodi-0.dtd"
   xmlns:inkscape="http://www.inkscape.org/namespaces/inkscape"
   width="2cm"
   height="2cm"
   viewBox="0 0 20 20"
   version="1.1"
   id="svg8"
   inkscape:version="1.0.2 (e86c870879, 2021-01-15)"
   sodipodi:docname="main.svg">
  <defs
     id="defs2">
    <inkscape:path-effect
       effect="bool_op"
       id="path-effect930"
       lpeversion="1"
       hide-linked="false"
       operation="diff"
       operand-path="#path905-6"
       is_visible="true"
       swap-operands="false"
       rmv-inner="false"
       filltype-this="oddeven"
       filltype-operand="from-curve" />
    <rect
       x="0"
       y="30"
       width="100"
       height="40"
       id="rect833" />
  </defs>
  <sodipodi:namedview
     id="base"
     pagecolor="#000000"
     bordercolor="#666666"
     borderopacity="1.0"
     inkscape:pageopacity="0"
     inkscape:pageshadow="2"
     inkscape:zoom="7.9195959"
     inkscape:cx="26.157388"
     inkscape:cy="37.112396"
     inkscape:document-units="mm"
     inkscape:current-layer="layer1"
     inkscape:document-rotation="0"
     showgrid="true"
     units="cm"
     inkscape:pagecheckerboard="true"
     gridtolerance="10"
     inkscape:window-width="1920"
     inkscape:window-height="1200"
     inkscape:window-x="0"
     inkscape:window-y="0"
     inkscape:window-maximized="1"
     inkscape:snap-nodes="false">
    <inkscape:grid
       type="xygrid"
       id="grid10"
       units="mm"
       spacingx="5"
       spacingy="5"
       empspacing="2"
       dotted="false"
       snapvisiblegridlinesonly="false" />
  </sodipodi:namedview>
  <metadata
     id="metadata5">
    <rdf:RDF>
      <cc:Work
         rdf:about="">
        <dc:format>image/svg+xml</dc:format>
        <dc:type
           rdf:resource="http://purl.org/dc/dcmitype/StillImage" />
        <dc:title></dc:title>
      </cc:Work>
    </rdf:RDF>
  </metadata>
  <g
     inkscape:label="Layer 1"
     inkscape:groupmode="layer"
     id="layer1">
    <path
       d="m 17.070581,13.637474 v 4.375327 q 0,0.941304 0.55781,1.237641 Q 17.000855,20 16.042118,20 14.333824,20 14.333824,17.925642 v -3.887241 q 0,-0.627537 -0.313769,-0.976168 -0.296337,-0.366064 -0.854146,-0.366064 -0.557812,0 -1.080759,0.505516 -0.522947,0.488083 -0.749558,1.464253 v 3.346863 q 0,0.941304 0.557811,1.237641 Q 11.265865,20 10.307129,20 8.5988342,20 8.5988342,17.925642 v -3.887241 q 0,-0.627537 -0.3137684,-0.976168 -0.2963368,-0.366064 -0.8541474,-0.366064 -0.5578105,0 -1.0807579,0.522948 -0.5229473,0.505515 -0.7495577,1.516546 v 3.277138 q 0,0.941304 0.575242,1.237641 Q 5.5134448,20 4.5721395,20 2.8638449,20 2.8638449,17.925642 v -5.456083 q 0,-0.906443 -0.5926737,-1.220211 0.6624001,-0.749559 1.5514106,-0.749559 0.8890104,0 1.3073683,0.453222 0.4183579,0.435789 0.4706527,1.359663 0.4706525,-0.88901 1.2899366,-1.342231 0.836716,-0.470654 1.7954527,-0.470654 0.9761684,0 1.6385679,0.522948 0.6624,0.522947 0.88901,1.516548 0.453222,-0.993601 1.324801,-1.516548 0.871578,-0.522948 1.9872,-0.522948 1.115621,0 1.830315,0.801853 0.714695,0.801853 0.714695,2.335832 z"
       style="font-style:normal;font-variant:normal;font-weight:bold;font-stretch:normal;font-size:17.6389px;font-family:Laila;-inkscape-font-specification:'Laila, Bold';font-variant-ligatures:normal;font-variant-caps:normal;font-variant-numeric:normal;font-variant-east-asian:normal;fill:#ffffff;fill-opacity:1;stroke-width:0.988247"
       id="path837"
       inkscape:label="m" />
    <g
       id="g845"
       inkscape:label="moon"
       transform="matrix(1.1217567,0,0,1.1217567,-33.929207,-12.866649)">
      <path
         id="path905-6"
         style="display:inline;opacity:0;fill:#000000;fill-opacity:1;stroke:none;stroke-width:5.50989"
         d="m 46.182938,14.048908 a 4.1131494,4.1131494 0 0 1 -4.113149,4.11315 4.1131494,4.1131494 0 0 1 -4.11315,-4.11315 4.1131494,4.1131494 0 0 1 4.11315,-4.1131492 4.1131494,4.1131494 0 0 1 4.113149,4.1131492 z"
         inkscape:label="moon cut" />
      <path
         id="path905"
         style="fill:#ffffff;fill-opacity:1;stroke:none;stroke-width:7.63453"
         d="m 39.112911,47.34203 c -2.683036,0.462557 -4.725096,2.793879 -4.725096,5.60902 0,3.147582 2.550264,5.700012 5.697846,5.700012 2.960378,0 5.392887,-2.258196 5.671847,-5.145393 -0.813187,0.750783 -1.891025,1.219728 -3.085069,1.219728 -2.519779,10e-7 -4.562609,-2.04283 -4.562609,-4.562609 0,-1.071422 0.384807,-2.042209 1.003081,-2.820758 z"
         inkscape:path-effect="#path-effect930"
         inkscape:original-d="m 45.785682,52.95126 a 5.699203,5.699203 0 0 1 -5.699203,5.699203 5.699203,5.699203 0 0 1 -5.699203,-5.699203 5.699203,5.699203 0 0 1 5.699203,-5.699203 5.699203,5.699203 0 0 1 5.699203,5.699203 z"
         inkscape:label="moon base"
         transform="matrix(0.90151954,0,0,0.90151954,3.6002744,-31.173906)" />
    </g>
  </g>
</svg>
